%YAML 1.1
%TAG !u! tag:unity3d.com,2011:
--- !u!74 &7400000
AnimationClip:
  m_ObjectHideFlags: 0
  m_PrefabParentObject: {fileID: 0}
  m_PrefabInternal: {fileID: 0}
  m_Name: New Animation_d15
  serializedVersion: 6
  m_Legacy: 0
  m_Compressed: 0
  m_UseHighQualityCurve: 1
  m_RotationCurves: []
  m_CompressedRotationCurves: []
  m_EulerCurves: []
  m_PositionCurves: []
  m_ScaleCurves: []
  m_FloatCurves: []
  m_PPtrCurves:
  - curve:
    - time: 0.1
      value: {fileID: 21300000, guid: 5d0decee33214469a94be38123ba8251, type: 3}
    - time: 0.2
      value: {fileID: 21300000, guid: 2a69b8ca451a4640937bef5e581e72ce, type: 3}
    - time: 0.3
      value: {fileID: 21300000, guid: a2b08ec147c24f42b66996ac56436a5c, type: 3}
    - time: 0.4
      value: {fileID: 21300000, guid: a1b7b724aaeb4f5c98da4a0e29e12d47, type: 3}
    - time: 0.5
      value: {fileID: 21300000, guid: bdff72c58b8a4ba69febbbcb74dc870f, type: 3}
    - time: 0.6
      value: {fileID: 21300000, guid: 66b440c477014be6a2bdb929d71fff89, type: 3}
    - time: 0.7
      value: {fileID: 21300000, guid: 574094ef7e9e462c927709c41bbac37a, type: 3}
    attribute: m_Sprite
    path: 
    classID: 114
    script: {fileID: -765806418, guid: f70555f144d8491a825f0804e09c671c, type: 3}
  m_SampleRate: 10
  m_WrapMode: 0
  m_Bounds:
    m_Center: {x: 0, y: 0, z: 0}
    m_Extent: {x: 0, y: 0, z: 0}
  m_ClipBindingConstant:
    genericBindings:
    - serializedVersion: 2
      path: 0
      attribute: 2015549526
      script: {fileID: -765806418, guid: f70555f144d8491a825f0804e09c671c, type: 3}
      typeID: 114
      customType: 0
      isPPtrCurve: 1
    pptrCurveMapping:
    - {fileID: 21300000, guid: 5d0decee33214469a94be38123ba8251, type: 3}
    - {fileID: 21300000, guid: 2a69b8ca451a4640937bef5e581e72ce, type: 3}
    - {fileID: 21300000, guid: a2b08ec147c24f42b66996ac56436a5c, type: 3}
    - {fileID: 21300000, guid: a1b7b724aaeb4f5c98da4a0e29e12d47, type: 3}
    - {fileID: 21300000, guid: bdff72c58b8a4ba69febbbcb74dc870f, type: 3}
    - {fileID: 21300000, guid: 66b440c477014be6a2bdb929d71fff89, type: 3}
    - {fileID: 21300000, guid: 574094ef7e9e462c927709c41bbac37a, type: 3}
  m_AnimationClipSettings:
    serializedVersion: 2
    m_AdditiveReferencePoseClip: {fileID: 0}
    m_AdditiveReferencePoseTime: 0
    m_StartTime: 0
    m_StopTime: 0.8
    m_OrientationOffsetY: 0
    m_Level: 0
    m_CycleOffset: 0
    m_HasAdditiveReferencePose: 1
    m_LoopTime: 0
    m_LoopBlend: 0
    m_LoopBlendOrientation: 0
    m_LoopBlendPositionY: 0
    m_LoopBlendPositionXZ: 0
    m_KeepOriginalOrientation: 0
    m_KeepOriginalPositionY: 1
    m_KeepOriginalPositionXZ: 0
    m_HeightFromFeet: 0
    m_Mirror: 0
  m_EditorCurves: []
  m_EulerEditorCurves: []
  m_HasGenericRootTransform: 0
  m_HasMotionFloatCurves: 0
  m_GenerateMotionCurves: 0
  m_Events: []
