%YAML 1.1
%TAG !u! tag:unity3d.com,2011:
--- !u!114 &11400000
MonoBehaviour:
  m_ObjectHideFlags: 0
  m_PrefabParentObject: {fileID: 0}
  m_PrefabInternal: {fileID: 0}
  m_GameObject: {fileID: 0}
  m_Enabled: 1
  m_EditorHideFlags: 0
  m_Script: {fileID: -667331979, guid: 0401ed9b158cca9500dcfacd2724dd9a, type: 3}
  m_Name: "Roboto-Black SDF"
  m_EditorClassIdentifier: 
  hashCode: 220891248
  material: {fileID: 2100000, guid: 06bf024af8cc429db29bb01eeeebfc7e, type: 2}
  materialHashCode: 417962747
  fontAssetType: 1
  m_fontInfo:
    Name: "Roboto"
    PointSize: 158
    Scale: 1
    CharacterCount: 98
    LineHeight: 185.1563
    Baseline: 0
    Ascender: 146.5938
    CapHeight: 112.3438
    Descender: -38.5625
    CenterLine: 0
    SuperscriptOffset: 146.5938
    SubscriptOffset: -15.42969
    SubSize: 0.5
    Underline: -15.42969
    UnderlineThickness: 7.714844
    strikethrough: 39.28409
    strikethroughThickness: 7.714844
    TabWidth: 393.4375
    Padding: 5
    AtlasWidth: 1024
    AtlasHeight: 1024
  atlas: {fileID: 2800000, guid: 9fcf507e13db4621ac5c8cc81b9783b8, type: 3}
  m_glyphInfoList:
  - id: 32
    x: 6
    y: 1029
    width: 39.34375
    height: 185.1563
    xOffset: 0
    yOffset: 146.5938
    xAdvance: 39.34375
    scale: 1
  - id: 33
    x: 572
    y: 904
    width: 28.875
    height: 113.7188
    xOffset: 7.9375
    yOffset: 112.3438
    xAdvance: 43.59375
    scale: 1
  - id: 34
    x: 275
    y: 710
    width: 44.8125
    height: 43.8125
    xOffset: 1.90625
    yOffset: 118.5625
    xAdvance: 50.0625
    scale: 1
  - id: 35
    x: 780
    y: 533
    width: 86.09375
    height: 112.3438
    xOffset: 2.3125
    yOffset: 112.3438
    xAdvance: 91.8125
    scale: 1
  - id: 36
    x: 61
    y: 701
    width: 78.84375
    height: 146.8125
    xOffset: 6.375
    yOffset: 130
    xAdvance: 91.5
    scale: 1
  - id: 37
    x: 246
    y: 97
    width: 103.4688
    height: 115.4688
    xOffset: 6.9375
    yOffset: 113.9375
    xAdvance: 117.2813
    scale: 1
  - id: 38
    x: 252
    y: 446
    width: 99.4375
    height: 115.5625
    xOffset: 4.3125
    yOffset: 113.9375
    xAdvance: 106.4688
    scale: 1
  - id: 39
    x: 245
    y: 709
    width: 18.53125
    height: 44.375
    xOffset: 3.3125
    yOffset: 118.5
    xAdvance: 24.375
    scale: 1
  - id: 40
    x: 6
    y: 689
    width: 43.4375
    height: 158.625
    xOffset: 9.25
    yOffset: 123.9063
    xAdvance: 55.78125
    scale: 1
  - id: 41
    x: 6
    y: 859
    width: 45.1875
    height: 158.625
    xOffset: 3.0625
    yOffset: 123.9063
    xAdvance: 55.625
    scale: 1
  - id: 42
    x: 63
    y: 9
    width: 71.125
    height: 69.0625
    xOffset: 2
    yOffset: 112.3438
    xAdvance: 73.4375
    scale: 1
  - id: 43
    x: 900
    y: 525
    width: 77
    height: 81.78125
    xOffset: 3.46875
    yOffset: 93.0625
    xAdvance: 84.40625
    scale: 1
  - id: 44
    x: 465
    y: 36
    width: 29.09375
    height: 49.84375
    xOffset: 3.3125
    yOffset: 19.625
    xAdvance: 42.59375
    scale: 1
  - id: 45
    x: 53
    y: 349
    width: 46.375
    height: 20.125
    xOffset: 11.71875
    yOffset: 58.46875
    xAdvance: 71.0625
    scale: 1
  - id: 46
    x: 151
    y: 703
    width: 28.6875
    height: 26.0625
    xOffset: 9
    yOffset: 25.25
    xAdvance: 47.75
    scale: 1
  - id: 47
    x: 151
    y: 741
    width: 56.875
    height: 122
    xOffset: -2.25
    yOffset: 112.3438
    xAdvance: 55.46875
    scale: 1
  - id: 48
    x: 380
    y: 772
    width: 78.3125
    height: 115.4063
    xOffset: 6.53125
    yOffset: 113.875
    xAdvance: 91.5
    scale: 1
  - id: 49
    x: 959
    y: 905
    width: 51.6875
    height: 112.3438
    xOffset: 12.78125
    yOffset: 112.3438
    xAdvance: 91.5
    scale: 1
  - id: 50
    x: 463
    y: 520
    width: 80.6875
    height: 113.9375
    xOffset: 4.53125
    yOffset: 113.9375
    xAdvance: 91.5
    scale: 1
  - id: 51
    x: 381
    y: 329
    width: 81.625
    height: 115.4688
    xOffset: 3.625
    yOffset: 113.9375
    xAdvance: 91.5
    scale: 1
  - id: 52
    x: 821
    y: 657
    width: 82.375
    height: 112.3438
    xOffset: 4.53125
    yOffset: 112.3438
    xAdvance: 91.5
    scale: 1
  - id: 53
    x: 510
    y: 651
    width: 78.53125
    height: 113.875
    xOffset: 6.15625
    yOffset: 112.3438
    xAdvance: 91.5
    scale: 1
  - id: 54
    x: 467
    y: 104
    width: 80.6875
    height: 115.4688
    xOffset: 6.375
    yOffset: 113.9375
    xAdvance: 91.5
    scale: 1
  - id: 55
    x: 596
    y: 24
    width: 80.9375
    height: 112.3438
    xOffset: 4
    yOffset: 112.3438
    xAdvance: 91.5
    scale: 1
  - id: 56
    x: 382
    y: 902
    width: 78.40625
    height: 115.4688
    xOffset: 6.46875
    yOffset: 113.9375
    xAdvance: 91.5
    scale: 1
  - id: 57
    x: 420
    y: 645
    width: 78.375
    height: 115.4688
    xOffset: 6.09375
    yOffset: 113.9375
    xAdvance: 91.5
    scale: 1
  - id: 58
    x: 412
    y: 230
    width: 28.6875
    height: 87.625
    xOffset: 9.0625
    yOffset: 86.8125
    xAdvance: 47.4375
    scale: 1
  - id: 59
    x: 192
    y: 272
    width: 31.78125
    height: 117.0313
    xOffset: 5.25
    yOffset: 86.8125
    xAdvance: 45.53125
    scale: 1
  - id: 60
    x: 306
    y: 9
    width: 68.1875
    height: 76.0625
    xOffset: 3.53125
    yOffset: 85.1875
    xAdvance: 80.53125
    scale: 1
  - id: 61
    x: 223
    y: 26
    width: 71.4375
    height: 53.9375
    xOffset: 9.875
    yOffset: 75.78125
    xAdvance: 92.5
    scale: 1
  - id: 62
    x: 386
    y: 9
    width: 67.8125
    height: 76.0625
    xOffset: 8.5625
    yOffset: 85.09375
    xAdvance: 81
    scale: 1
  - id: 63
    x: 470
    y: 776
    width: 72.65625
    height: 114.8125
    xOffset: 2.375
    yOffset: 113.875
    xAdvance: 80.46875
    scale: 1
  - id: 64
    x: 63
    y: 874
    width: 131.75
    height: 143.7188
    xOffset: 4.53125
    yOffset: 108.7813
    xAdvance: 141.5
    scale: 1
  - id: 65
    x: 555
    y: 527
    width: 108.1563
    height: 112.3438
    xOffset: -0.25
    yOffset: 112.3438
    xAdvance: 107.625
    scale: 1
  - id: 66
    x: 655
    y: 279
    width: 87.03125
    height: 112.3438
    xOffset: 8.46875
    yOffset: 112.3438
    xAdvance: 101.9063
    scale: 1
  - id: 67
    x: 275
    y: 319
    width: 94.28125
    height: 115.4688
    xOffset: 5.3125
    yOffset: 113.9375
    xAdvance: 103.6875
    scale: 1
  - id: 68
    x: 859
    y: 905
    width: 88.25
    height: 112.3438
    xOffset: 8.46875
    yOffset: 112.3438
    xAdvance: 102.1563
    scale: 1
  - id: 69
    x: 659
    y: 155
    width: 77.53125
    height: 112.3438
    xOffset: 8.46875
    yOffset: 112.3438
    xAdvance: 88.40625
    scale: 1
  - id: 70
    x: 688
    y: 31
    width: 75.125
    height: 112.3438
    xOffset: 8.46875
    yOffset: 112.3438
    xAdvance: 86.40625
    scale: 1
  - id: 71
    x: 361
    y: 97
    width: 94.125
    height: 115.4688
    xOffset: 6.3125
    yOffset: 113.9375
    xAdvance: 107.6875
    scale: 1
  - id: 72
    x: 675
    y: 531
    width: 93.875
    height: 112.3438
    xOffset: 8.46875
    yOffset: 112.3438
    xAdvance: 111.0313
    scale: 1
  - id: 73
    x: 754
    y: 283
    width: 27
    height: 112.3438
    xOffset: 10.3125
    yOffset: 112.3438
    xAdvance: 47.6875
    scale: 1
  - id: 74
    x: 554
    y: 779
    width: 77.46875
    height: 113.875
    xOffset: 2.78125
    yOffset: 112.3438
    xAdvance: 88.8125
    scale: 1
  - id: 75
    x: 607
    y: 403
    width: 94.1875
    height: 112.3438
    xOffset: 8.46875
    yOffset: 112.3438
    xAdvance: 101.0625
    scale: 1
  - id: 76
    x: 748
    y: 155
    width: 74.21875
    height: 112.3438
    xOffset: 8.46875
    yOffset: 112.3438
    xAdvance: 85.625
    scale: 1
  - id: 77
    x: 474
    y: 396
    width: 121.25
    height: 112.3438
    xOffset: 8.46875
    yOffset: 112.3438
    xAdvance: 138.4688
    scale: 1
  - id: 78
    x: 716
    y: 657
    width: 93.8125
    height: 112.3438
    xOffset: 8.46875
    yOffset: 112.3438
    xAdvance: 110.9375
    scale: 1
  - id: 79
    x: 310
    y: 583
    width: 98.3125
    height: 115.4063
    xOffset: 5.3125
    yOffset: 113.875
    xAdvance: 109.0938
    scale: 1
  - id: 80
    x: 559
    y: 148
    width: 88.40625
    height: 112.3438
    xOffset: 8.46875
    yOffset: 112.3438
    xAdvance: 102.8438
    scale: 1
  - id: 81
    x: 53
    y: 381
    width: 98.21875
    height: 134.375
    xOffset: 5.53125
    yOffset: 113.875
    xAdvance: 109.0938
    scale: 1
  - id: 82
    x: 757
    y: 905
    width: 90.59375
    height: 112.3438
    xOffset: 8.46875
    yOffset: 112.3438
    xAdvance: 103.0625
    scale: 1
  - id: 83
    x: 363
    y: 456
    width: 88.5625
    height: 115.4063
    xOffset: 4.9375
    yOffset: 113.875
    xAdvance: 98.90625
    scale: 1
  - id: 84
    x: 755
    y: 781
    width: 93.875
    height: 112.3438
    xOffset: 2.75
    yOffset: 112.3438
    xAdvance: 99.59375
    scale: 1
  - id: 85
    x: 472
    y: 904
    width: 88.5
    height: 113.875
    xOffset: 8.09375
    yOffset: 112.3438
    xAdvance: 105
    scale: 1
  - id: 86
    x: 600
    y: 655
    width: 104.9375
    height: 112.3438
    xOffset: -0.25
    yOffset: 112.3438
    xAdvance: 104.375
    scale: 1
  - id: 87
    x: 612
    y: 905
    width: 133.625
    height: 112.3438
    xOffset: 1.59375
    yOffset: 112.3438
    xAdvance: 137.3125
    scale: 1
  - id: 88
    x: 643
    y: 781
    width: 100.2188
    height: 112.3438
    xOffset: 0.28125
    yOffset: 112.3438
    xAdvance: 100.8438
    scale: 1
  - id: 89
    x: 544
    y: 272
    width: 99.75
    height: 112.3438
    xOffset: -0.25
    yOffset: 112.3438
    xAdvance: 99.21875
    scale: 1
  - id: 90
    x: 713
    y: 407
    width: 87.8125
    height: 112.3438
    xOffset: 4.78125
    yOffset: 112.3438
    xAdvance: 96.34375
    scale: 1
  - id: 91
    x: 6
    y: 519
    width: 35.15625
    height: 158.5625
    xOffset: 8.3125
    yOffset: 131.625
    xAdvance: 44.5
    scale: 1
  - id: 92
    x: 136
    y: 568
    width: 73.96875
    height: 122
    xOffset: -1.5625
    yOffset: 112.3438
    xAdvance: 67.34375
    scale: 1
  - id: 93
    x: 6
    y: 349
    width: 35.15625
    height: 158.5625
    xOffset: 1.0625
    yOffset: 131.625
    xAdvance: 44.5
    scale: 1
  - id: 94
    x: 146
    y: 22
    width: 65.40625
    height: 56.09375
    xOffset: 2.75
    yOffset: 112.3438
    xAdvance: 70.65625
    scale: 1
  - id: 95
    x: 111
    y: 350
    width: 69.65625
    height: 19.375
    xOffset: 0
    yOffset: 0
    xAdvance: 69.75
    scale: 1
  - id: 96
    x: 191
    y: 705
    width: 42.90625
    height: 24.21875
    xOffset: 4.15625
    yOffset: 118.5
    xAdvance: 53.625
    scale: 1
  - id: 97
    x: 812
    y: 435
    width: 76.84375
    height: 86.5625
    xOffset: 3.46875
    yOffset: 85.03125
    xAdvance: 83.875
    scale: 1
  - id: 98
    x: 221
    y: 573
    width: 77.3125
    height: 120.0313
    xOffset: 7.46875
    yOffset: 118.5
    xAdvance: 88.9375
    scale: 1
  - id: 99
    x: 775
    y: 57
    width: 74.34375
    height: 86.5625
    xOffset: 4
    yOffset: 85.03125
    xAdvance: 82.09375
    scale: 1
  - id: 100
    x: 206
    y: 897
    width: 77.40625
    height: 120.0313
    xOffset: 4
    yOffset: 118.5
    xAdvance: 88.875
    scale: 1
  - id: 101
    x: 506
    y: 6
    width: 78.125
    height: 86.5625
    xOffset: 4.6875
    yOffset: 85.03125
    xAdvance: 86.03125
    scale: 1
  - id: 102
    x: 219
    y: 765
    width: 56.375
    height: 120.125
    xOffset: 0.90625
    yOffset: 120.125
    xAdvance: 57.25
    scale: 1
  - id: 103
    x: 101
    y: 220
    width: 79.15625
    height: 117.9063
    xOffset: 4.21875
    yOffset: 85.03125
    xAdvance: 90.875
    scale: 1
  - id: 104
    x: 295
    y: 899
    width: 75.28125
    height: 118.5
    xOffset: 6.6875
    yOffset: 118.5
    xAdvance: 89.1875
    scale: 1
  - id: 105
    x: 235
    y: 272
    width: 28.875
    height: 117.6563
    xOffset: 7.09375
    yOffset: 117.6563
    xAdvance: 43.4375
    scale: 1
  - id: 106
    x: 6
    y: 186
    width: 45.03125
    height: 151.375
    xOffset: -8.96875
    yOffset: 117.6563
    xAdvance: 42.65625
    scale: 1
  - id: 107
    x: 287
    y: 767
    width: 81.34375
    height: 118.5625
    xOffset: 7.46875
    yOffset: 118.5625
    xAdvance: 86.40625
    scale: 1
  - id: 108
    x: 63
    y: 219
    width: 26.0625
    height: 118.5
    xOffset: 8.625
    yOffset: 118.5
    xAdvance: 43.4375
    scale: 1
  - id: 109
    x: 860
    y: 808
    width: 121.0313
    height: 85.03125
    xOffset: 7.46875
    yOffset: 85.03125
    xAdvance: 136.0938
    scale: 1
  - id: 110
    x: 900
    y: 428
    width: 75.21875
    height: 85.03125
    xOffset: 6.78125
    yOffset: 85.03125
    xAdvance: 89.09375
    scale: 1
  - id: 111
    x: 452
    y: 231
    width: 80.5625
    height: 86.5625
    xOffset: 4
    yOffset: 85.03125
    xAdvance: 88.71875
    scale: 1
  - id: 112
    x: 157
    y: 91
    width: 77.3125
    height: 117.125
    xOffset: 7.46875
    yOffset: 85.03125
    xAdvance: 88.9375
    scale: 1
  - id: 113
    x: 163
    y: 401
    width: 77.375
    height: 117.125
    xOffset: 4
    yOffset: 85.03125
    xAdvance: 88.8125
    scale: 1
  - id: 114
    x: 855
    y: 331
    width: 50.75
    height: 85.03125
    xOffset: 7.46875
    yOffset: 85.03125
    xAdvance: 59.875
    scale: 1
  - id: 115
    x: 834
    y: 192
    width: 73.5
    height: 86.5625
    xOffset: 2.6875
    yOffset: 85.03125
    xAdvance: 80.9375
    scale: 1
  - id: 116
    x: 792
    y: 290
    width: 51.53125
    height: 105.75
    xOffset: 0.90625
    yOffset: 104.2188
    xAdvance: 54.25
    scale: 1
  - id: 117
    x: 919
    y: 332
    width: 75.28125
    height: 85
    xOffset: 6.84375
    yOffset: 83.46875
    xAdvance: 89.09375
    scale: 1
  - id: 118
    x: 915
    y: 713
    width: 81
    height: 83.46875
    xOffset: 0.125
    yOffset: 83.46875
    xAdvance: 81.625
    scale: 1
  - id: 119
    x: 289
    y: 224
    width: 111.0313
    height: 83.46875
    xOffset: 1.6875
    yOffset: 83.46875
    xAdvance: 114.7188
    scale: 1
  - id: 120
    x: 915
    y: 618
    width: 80.46875
    height: 83.46875
    xOffset: 0.84375
    yOffset: 83.46875
    xAdvance: 81.3125
    scale: 1
  - id: 121
    x: 63
    y: 90
    width: 82.6875
    height: 117.1875
    xOffset: -0.34375
    yOffset: 83.46875
    xAdvance: 81.84375
    scale: 1
  - id: 122
    x: 919
    y: 237
    width: 70.90625
    height: 83.46875
    xOffset: 5.0625
    yOffset: 83.46875
    xAdvance: 81.3125
    scale: 1
  - id: 123
    x: 6
    y: 24
    width: 45.125
    height: 151
    xOffset: 3.0625
    yOffset: 123.2188
    xAdvance: 51.3125
    scale: 1
  - id: 124
    x: 110
    y: 556
    width: 14.1875
    height: 133.1875
    xOffset: 13.25
    yOffset: 112.3438
    xAdvance: 40.34375
    scale: 1
  - id: 125
    x: 53
    y: 527
    width: 45.15625
    height: 151
    xOffset: 3.15625
    yOffset: 123.2188
    xAdvance: 51.3125
    scale: 1
  - id: 126
    x: 192
    y: 224
    width: 85.09375
    height: 36.1875
    xOffset: 7.25
    yOffset: 64.5
    xAdvance: 99.90625
    scale: 1
  - id: 160
    x: 6
    y: 1029
    width: 0
    height: 0
    xOffset: 0
    yOffset: 0
    xAdvance: 39.34375
    scale: 1
  - id: 8203
    x: 6
    y: 1029
    width: 0
    height: 0
    xOffset: 0
    yOffset: 0
    xAdvance: 0
    scale: 1
  - id: 8230
    x: 136
    y: 530
    width: 104.0625
    height: 26.0625
    xOffset: 9.84375
    yOffset: 25.25
    xAdvance: 122.4375
    scale: 1
  m_kerningInfo:
    kerningPairs: []
  m_kerningPair:
    AscII_Left: 0
    AscII_Right: 0
    XadvanceOffset: 0
  fallbackFontAssets: []
  fontCreationSettings:
    fontSourcePath: 
    fontSizingMode: 0
    fontSize: 0
    fontPadding: 0
    fontPackingMode: 0
    fontAtlasWidth: 0
    fontAtlasHeight: 0
    fontCharacterSet: 0
    fontStyle: 0
    fontStlyeModifier: 0
    fontRenderMode: 0
    fontKerning: 0
  fontWeights:
  - regularTypeface: {fileID: 0}
    italicTypeface: {fileID: 0}
  - regularTypeface: {fileID: 0}
    italicTypeface: {fileID: 0}
  - regularTypeface: {fileID: 0}
    italicTypeface: {fileID: 0}
  - regularTypeface: {fileID: 0}
    italicTypeface: {fileID: 0}
  - regularTypeface: {fileID: 0}
    italicTypeface: {fileID: 0}
  - regularTypeface: {fileID: 0}
    italicTypeface: {fileID: 0}
  - regularTypeface: {fileID: 0}
    italicTypeface: {fileID: 0}
  - regularTypeface: {fileID: 0}
    italicTypeface: {fileID: 0}
  - regularTypeface: {fileID: 0}
    italicTypeface: {fileID: 0}
  - regularTypeface: {fileID: 0}
    italicTypeface: {fileID: 0}
  normalStyle: 0
  normalSpacingOffset: 0
  boldStyle: 0.75
  boldSpacing: 7
  italicStyle: 35
  tabSize: 10
