%YAML 1.1
%TAG !u! tag:unity3d.com,2011:
--- !u!221 &22100000
AnimatorOverrideController:
  m_ObjectHideFlags: 0
  m_PrefabParentObject: {fileID: 0}
  m_PrefabInternal: {fileID: 0}
  m_Name: "Override"
  m_Controller: {fileID: 9100000, guid: 1a3f347d4da64126bef5a321fb83a133, type: 2}
  m_Clips:
  - m_OriginalClip: {fileID: 7400000, guid: b5b5179b08b0420a888822499aa69184, type: 2}
    m_OverrideClip: {fileID: 7400000, guid: b5b5179b08b0420a888822499aa69184, type: 2}
  - m_OriginalClip: {fileID: 7400000, guid: 14468cd4250b47e1b8accc1d2df14d90, type: 2}
    m_OverrideClip: {fileID: 7400000, guid: 14468cd4250b47e1b8accc1d2df14d90, type: 2}
  - m_OriginalClip: {fileID: 7400000, guid: cce97cea2699462780bd5bab55e1fd35, type: 2}
    m_OverrideClip: {fileID: 7400000, guid: cce97cea2699462780bd5bab55e1fd35, type: 2}
